{
    "msg": {
      "code": 0,
      "info": ""
    },
    "data": {
      "total": 35,
      "per_page": "20",
      "current_page": 1,
      "last_page": 2,
      "next_page_url": "http://fuzai-server/api/gth/order-pages/for-web?page=2",
      "prev_page_url": null,
      "from": 1,
      "to": 20,
      "data": [
        {
          "id": 5587268,
          "title": "1765 | 联通石英卡9元包2G通用+10G定向+100分钟通话",
          "selling_point": [
            ""
          ],
          "image1": "https://static.91haoka.cn/16856719318dt.jpg"
        },
        {
          "id": 5587350,
          "title": "1764 | 联通金塔卡9元包3G通用+10G定向+100分钟通话",
          "selling_point": [
            ""
          ],
          "image1": "https://static.91haoka.cn/1685671714aMi.jpg"
        },
        {
          "id": 5592132,
          "title": "1815 | 联通酷暑卡29元包143G通用+200分钟通话",
          "selling_point": [
            "京东上门",
            "16周岁以上",
            "2年套餐"
          ],
          "image1": "https://static.91haoka.cn/1687584750vEn.jpg"
        },
        {
          "id": 5592156,
          "title": "1804 | 联通晴川卡29元包143G通用+200分钟通话",
          "selling_point": [
            "全通用"
          ],
          "image1": "https://static.91haoka.cn/1687259762mo6.jpg"
        },
        {
          "id": 6673858,
          "title": "1922 | 电信千聚卡29元包155G通用+30G定向+100分钟通话",
          "selling_point": [
            "到期可续"
          ],
          "image1": "https://static.91haoka.cn/1691399284dLb.jpg"
        },
        {
          "id": 6674003,
          "title": "1898 | 电信汤姆卡29元包125G通用+30G定向+通话0.1元/分钟",
          "selling_point": [
            "长期20年",
            "自助激活",
            "强冲",
            "可选号"
          ],
          "image1": "https://static.91haoka.cn/1690429270QlH.jpg"
        },
        {
          "id": 6674032,
          "title": "1899 | 电信杰瑞卡39元包150G通用+30G定向+通话0.1元/分钟",
          "selling_point": [
            "长期20年",
            "自助激活",
            "强冲",
            "可选号"
          ],
          "image1": "https://static.91haoka.cn/1690429499RqO.jpg"
        },
        {
          "id": 6674096,
          "title": "1934 | 联通明月卡29元包160G通用+通话0.15元/分钟",
          "selling_point": [
            "次月在网",
            "不考核首冲",
            "可选号"
          ],
          "image1": "https://static.91haoka.cn/1691584386F2A.jpg"
        },
        {
          "id": 6674165,
          "title": "1931 | 电信千椰卡39元包185G通用+30G定向+通话0.1元/分钟",
          "selling_point": [
            "长期套餐",
            "流量可结转"
          ],
          "image1": "https://static.91haoka.cn/1691571858rZj.jpg"
        },
        {
          "id": 6674192,
          "title": "1920 | 电信千海卡29元包140G通用+30G定向+100分钟通话",
          "selling_point": [
            "首充50优惠1年",
            "首充100优惠2年"
          ],
          "image1": "https://static.91haoka.cn/1691162508h8z.jpg"
        },
        {
          "id": 6674304,
          "title": "1912 | 电信传奇卡29元包125G通用+30G定向+通话0.1元/分钟",
          "selling_point": [
            "长期流量"
          ],
          "image1": "https://static.91haoka.cn/1691055954iA8.jpg"
        },
        {
          "id": 6674390,
          "title": "1894 | 移动万户卡29元包105G通用+30G定向+通话0.1元/分钟",
          "selling_point": [
            "收货地是归属地",
            "可选号",
            "考核在网"
          ],
          "image1": "https://static.91haoka.cn/1690262543aE9.jpg"
        },
        {
          "id": 6674396,
          "title": "1893 | 移动千家卡19元包50G通用+30G定向+通话0.1元/分钟",
          "selling_point": [
            "收货地是归属地",
            "可选号",
            "次月正常在网"
          ],
          "image1": "https://static.91haoka.cn/1690262363G2m.jpg"
        },
        {
          "id": 6674433,
          "title": "1847 | 移动入化卡29元包105G通用+30G定向+通话0.1元/分钟",
          "selling_point": [
            "收货地为归属地",
            "仅考核充值不销户"
          ],
          "image1": "https://static.91haoka.cn/1688456706W5t.jpg"
        },
        {
          "id": 6674471,
          "title": "1854 | 移动云涌卡29元包105G通用+30G定向+通话0.1元/分钟",
          "selling_point": [
            "充值不注销即可结算",
            "收货地是归属地",
            "可选号"
          ],
          "image1": "https://static.91haoka.cn/1688722775bz0.jpg"
        },
        {
          "id": 6674501,
          "title": "1853 | 移动风起卡19元包50G通用+30G定向+通话0.1元/分钟",
          "selling_point": [
            "充值不注销即可结算",
            "收货地是归属地",
            "可选号"
          ],
          "image1": "https://static.91haoka.cn/1688720982wYM.jpg"
        },
        {
          "id": 6674538,
          "title": "1800 | 移动匠心卡19元包60G通用+30G定向+通话0.1元/分钟",
          "selling_point": [
            "首冲50",
            "首月免租"
          ],
          "image1": "https://static.91haoka.cn/1686976860vTp.jpg"
        },
        {
          "id": 6674560,
          "title": "1845 | 联通顶峰卡29元包147G通用+100分钟通话",
          "selling_point": [
            "长期套餐",
            "首月按天扣费",
            "可选号"
          ],
          "image1": "https://static.91haoka.cn/1688390880BYo.jpg"
        },
        {
          "id": 7289728,
          "title": "1978 | 联通长安卡29元包160G通用+100分钟通话",
          "selling_point": [
            "可选号",
            "高发货率"
          ],
          "image1": "https://static.91haoka.cn/1693282548rU1.jpg"
        },
        {
          "id": 7289740,
          "title": "1990 | 电信极光卡29元包190G通用+30G定向+通话0.1元/分钟",
          "selling_point": [
            "大流量",
            "首充50"
          ],
          "image1": "https://static.91haoka.cn/1693575998hb4.jpg"
        }
      ]
    }
  }